How to make fancy road trip maps with R and OpenStreetMap | Andrew Heiss
…
lower_48_highlighted_better <- lower_48 %>% 
  left_join(states_crossed_through_better, by = join_by(NAME)) %>% 
  mutate(visited = !is.na(direction))
as_tibble(lower_48_highlighted_better)
## # A tibble: 51 × 12
##    STATEFP STATENS  AFFGEOID    GEOID STUSPS NAME       LSAD         ALAND      AWATER direction                                                                                 geometry visited
##    <chr>   <chr>    <chr>       <chr> <chr>  <chr>      <chr>        <dbl>       <dbl> <fct>                                                                           <MULTIPOLYGON [°]> <lgl>  
##  1 48      01779801 0400000US48 48    TX     Texas      00    676685555821 18974391187 There      (((-107 31.9, -107 32, -107 32, -107 32, -106 32, -106 32, -106 32, -106 32, -105 32... TRUE   
##  2 06      01779778 0400000US06 06    CA     California 00    403673617862 20291712025 <NA>       (((-119 33.5, -118 33.5, -118 33.4, -118 33.4, -118 33.3, -118 33.3, -118 33.3, -118... FALSE  
##  3 21      01779786 0400000US21 21    KY     Kentucky   00    102266581101  2384240769 Back again (((-89.5 36.6, -89.5 36.6, -89.4 36.6, -89.4 36.6, -89.3 36.6, -89.3 36.6, -89.3 36.... TRUE   
##  4 13      01705317 0400000US13 13    GA     Georgia    00    149486268417  4418716153 There      (((-85.6 35, -85.5 35, -85.4 35, -85.4 35, -85.3 35, -85.3 35, -85 35, -85 35, -85 3... TRUE   
##  5 13      01705317 0400000US13 13    GA     Georgia    00    149486268417  4418716153 Back again (((-85.6 35, -85.5 35, -85.4 35, -85.4 35, -85.3 35, -85.3 35, -85 35, -85 35, -85 3... TRUE   
##  6 55      01779806 0400000US55 55    WI     Wisconsin  00    140292518676 29343193162 <NA>       (((-86.9 45.4, -86.8 45.5, -86.8 45.4, -86.9 45.4, -86.9 45.3, -87 45.4, -86.9 45.4)... FALSE  
##  7 41      01155107 0400000US41 41    OR     Oregon     00    248630319014  6169061220 <NA>       (((-125 42.8, -124 43, -124 43, -124 43.1, -124 43.2, -124 43.2, -124 43.3, -124 43.... FALSE  
##  8 29      01779791 0400000US29 29    MO     Missouri   00    178052253239  2487526202 Back again (((-95.8 40.6, -95.5 40.6, -95.4 40.6, -95.3 40.6, -95.2 40.6, -95.1 40.6, -94.9 40.... TRUE   
##  9 51      01779803 0400000US51 51    VA     Virginia   00    102258178227  8528072639 <NA>       (((-76 37.3, -76 37.4, -76 37.4, -75.9 37.5, -75.9 37.6, -75.9 37.6, -75.9 37.7, -75... FALSE  
## 10 47      01325873 0400000US47 47    TN     Tennessee  00    106792368794  2322190840 Back again (((-90.3 35, -90.3 35, -90.2 35.1, -90.2 35.1, -90.2 35.1, -90.1 35.1, -90.1 35.2, -... TRUE   
## # ℹ 41 more rows
…
