A guide to correctly calculating posterior predictions and average marginal effects with multilievel Bayesian models | Md. Jubayer Hossain
…
posterior_predict(model_basic, newdata) %>% head()
##       [,1]  [,2]
## [1,] 0.894 0.401
## [2,] 0.400 0.751
## [3,] 0.864 0.476
## [4,] 0.374 0.332
## [5,] 0.544 0.495
## [6,] 0.564 0.596

This returns a matrix with 4,000 rows and 2 columns—a column for when party_autonomy is TRUE and one for when it is FALSE. This format isn’t in the nicest shape for plotting and doing tidy type of stuff with, so we can alternatively use predicted_draws() from the tidybayes package. This is really just a fancy wrapper around brms::posterior_predict() that returns a much nicer tidier data frame:

tidy_pred <- model_basic %>% 
  predicted_draws(newdata = newdata)
tidy_pred
## # A tibble: 8,000 × 8
## # Groups:   party_autonomy, civil_liberties, region, .row [2]
##    party_autonomy civil_liberties region                 .row .chain .iter…¹ .draw .pred…²
##    <lgl>                    <dbl> <chr>                 <int>  <int>   <int> <int>   <dbl>
##  1 TRUE                       0.5 Middle East and Nort…     1     NA      NA     1   0.669
##  2 TRUE                       0.5 Middle East and Nort…     1     NA      NA     2   0.811
##  3 TRUE                       0.5 Middle East and Nort…     1     NA      NA     3   0.378
##  4 TRUE                       0.5 Middle East and Nort…     1     NA      NA     4   0.329
##  5 TRUE                       0.5 Middle East and Nort…     1     NA      NA     5   0.559
##  6 TRUE                       0.5 Middle East and Nort…     1     NA      NA     6   0.518
##  7 TRUE                       0.5 Middle East and Nort…     1     NA      NA     7   0.927
##  8 TRUE                       0.5 Middle East and Nort…     1     NA      NA     8   0.823
##  9 TRUE                       0.5 Middle East and Nort…     1     NA      NA     9   0.475
## 10 TRUE                       0.5 Middle East and Nort…     1     NA      NA    10   0.802
## # … with 7,990 more rows, and abbreviated variable names ¹​.iteration, ²​.prediction
…
# Expected values with brms
posterior_epred(model_basic, newdata) %>% head()
##       [,1]  [,2]
## [1,] 0.677 0.413
## [2,] 0.605 0.387
## [3,] 0.619 0.395
## [4,] 0.593 0.304
## [5,] 0.697 0.389
## [6,] 0.527 0.353

# Expected values with tidybayes
tidy_epred <- model_basic %>% 
  epred_draws(newdata = newdata)
tidy_epred
## # A tibble: 8,000 × 8
## # Groups:   party_autonomy, civil_liberties, region, .row [2]
##    party_autonomy civil_liberties region                  .row .chain .iter…¹ .draw .epred
##    <lgl>                    <dbl> <chr>                  <int>  <int>   <int> <int>  <dbl>
##  1 TRUE                       0.5 Middle East and North…     1     NA      NA     1  0.677
##  2 TRUE                       0.5 Middle East and North…     1     NA      NA     2  0.605
##  3 TRUE                       0.5 Middle East and North…     1     NA      NA     3  0.619
##  4 TRUE                       0.5 Middle East and North…     1     NA      NA     4  0.593
##  5 TRUE                       0.5 Middle East and North…     1     NA      NA     5  0.697
##  6 TRUE                       0.5 Middle East and North…     1     NA      NA     6  0.527
##  7 TRUE                       0.5 Middle East and North…     1     NA      NA     7  0.756
##  8 TRUE                       0.5 Middle East and North…     1     NA      NA     8  0.659
##  9 TRUE                       0.5 Middle East and North…     1     NA      NA     9  0.524
## 10 TRUE                       0.5 Middle East and North…     1     NA      NA    10  0.701
## # … with 7,990 more rows, and abbreviated variable name ¹​.iteration
…
For all our marginal effects calculations here, we’re going to use expected values, or epred_draws().

Average marginal effects

In the plot above, we got predicted values of our outcome across different levels of party autonomy when holding civil liberties and region constant, and that’s neat, but what we’re really interested in is the difference between those two distributions, or the marginal effect of flipping party autonomy from false to true. How much of an increase in the predicted media index when there is party autonomy?

We already have all the information we need to calculate this with our tidy_epred. If we rearrange the dataset so that it’s wide, with a column for party autonomy being true and a column for when it’s false, we can subtract the two columns and get the difference:

tidy_epred %>% 
  ungroup() %>% 
  select(-.row) %>% 
  pivot_wider(names_from = "party_autonomy", values_from = ".epred") %>% 
  mutate(autonomy_effect = `TRUE` - `FALSE`)
## # A tibble: 4,000 × 8
##    civil_liberties region                      .chain .iter…¹ .draw `TRUE` `FALSE` auton…²
##              <dbl> <chr>                        <int>   <int> <int>  <dbl>   <dbl>   <dbl>
##  1             0.5 Middle East and North Afri…     NA      NA     1  0.677   0.413   0.265
##  2             0.5 Middle East and North Afri…     NA      NA     2  0.605   0.387   0.218
##  3             0.5 Middle East and North Afri…     NA      NA     3  0.619   0.395   0.224
##  4             0.5 Middle East and North Afri…     NA      NA     4  0.593   0.304   0.290
##  5             0.5 Middle East and North Afri…     NA      NA     5  0.697   0.389   0.308
##  6             0.5 Middle East and North Afri…     NA      NA     6  0.527   0.353   0.174
##  7             0.5 Middle East and North Afri…     NA      NA     7  0.756   0.500   0.256
##  8             0.5 Middle East and North Afri…     NA      NA     8  0.659   0.454   0.205
##  9             0.5 Middle East and North Afri…     NA      NA     9  0.524   0.294   0.230
## 10             0.5 Middle East and North Afri…     NA      NA    10  0.701   0.424   0.276
## # … with 3,990 more rows, and abbreviated variable names ¹​.iteration, ²​autonomy_effect
…
If we store the results of emmeans() as an object, we actually get access to all the posterior draws that it created for the predictions, which we can then extract and rearrange with tidybayes’s gather_emmeans_draws(). (Without the contrast() step, we’d get predicted values for both levels of party_autonomy.)

autonomy_effect_draws <- model_basic %>% 
  emmeans(~ party_autonomy,
          at = list(civil_liberties = 0.5,
                    region = "Middle East and North Africa"),
          epred = TRUE) %>% 
  contrast(method = "revpairwise") %>% 
  gather_emmeans_draws()
autonomy_effect_draws
## # A tibble: 4,000 × 5
## # Groups:   contrast [1]
##    contrast     .chain .iteration .draw .value
##    <chr>         <int>      <int> <int>  <dbl>
##  1 TRUE - FALSE     NA         NA     1  0.254
##  2 TRUE - FALSE     NA         NA     2  0.217
##  3 TRUE - FALSE     NA         NA     3  0.223
##  4 TRUE - FALSE     NA         NA     4  0.292
##  5 TRUE - FALSE     NA         NA     5  0.311
##  6 TRUE - FALSE     NA         NA     6  0.169
##  7 TRUE - FALSE     NA         NA     7  0.275
##  8 TRUE - FALSE     NA         NA     8  0.205
##  9 TRUE - FALSE     NA         NA     9  0.237
## 10 TRUE - FALSE     NA         NA    10  0.270
## # … with 3,990 more rows
…
