Road trip analysis! How to use and play with Google Location History in R | Md. Jubayer Hossain
…
We can load all these JSON files with R using the read_json() function from {jsonlite}, but we need to do a little bit of fancy data wrangling with the more complex semantic location history JSON files.

Records.json

Loading and cleaning data

Loading Records.json is easy. Because it is essentially rectangular data already, we can use simplifyVector = TRUE to have R convert the locations slot of the JSON file to a data frame automatically.

all_locations_raw <- read_json("data/Records.json", simplifyVector = TRUE) %>% 
  # Pull out the "locations" slot (this is the same as doing full_data$locations)
  pluck("locations") %>% 
  # Make this a tibble just so it prints nicer here on the blog
  as_tibble() 
all_locations_raw
## # A tibble: 2,288 × 15
##    latitudeE7 longitudeE7 accuracy velocity heading altitude verticalAccuracy deviceTag platformType serverTimestamp          batteryCharging formFactor timestamp                source deviceTimestamp
##         <int>       <int>    <int>    <int>   <int>    <int>            <int>     <int> <chr>        <chr>                    <lgl>           <chr>      <chr>                    <chr>  <chr>          
##  1  338465853  -843051758        4       30     205      271                3         0 IOS          2023-06-03T12:00:21.140Z TRUE            PHONE      2023-06-03T12:00:21.001Z <NA>   <NA>           
##  2  338361607  -843273246       25       32     238      272                3         0 IOS          2023-06-03T12:01:41.112Z TRUE            PHONE      2023-06-03T12:01:41Z     <NA>   <NA>           
##  3  338283154  -843438356        4       29     228      270                3         0 IOS          2023-06-03T12:02:36.183Z TRUE            PHONE      2023-06-03T12:02:36.001Z <NA>   <NA>           
##  4  338185757  -843621145        4       30     203      259                3         0 IOS          2023-06-03T12:03:46.098Z TRUE            PHONE      2023-06-03T12:03:46Z     <NA>   <NA>           
##  5  338086421  -843782498        4       30     233      277                3         0 IOS          2023-06-03T12:04:51.107Z TRUE            PHONE      2023-06-03T12:04:51.001Z <NA>   <NA>           
##  6  337970326  -843935971        4       27     192      269                3         0 IOS          2023-06-03T12:05:56.167Z TRUE            PHONE      2023-06-03T12:05:55.999Z <NA>   <NA>           
##  7  337805263  -843911732        4       27     180      282                3         0 IOS          2023-06-03T12:07:03.134Z TRUE            PHONE      2023-06-03T12:07:03.001Z <NA>   <NA>           
##  8  337672676  -843890003        4       23     125      291                3         0 IOS          2023-06-03T12:08:08.143Z TRUE            PHONE      2023-06-03T12:08:08Z     <NA>   <NA>           
##  9  337553940  -843786019        4       27     181      310                3         0 IOS          2023-06-03T12:09:16.194Z TRUE            PHONE      2023-06-03T12:09:16.001Z <NA>   <NA>           
## 10  337437364  -843914546        4       26     207      295                3         0 IOS          2023-06-03T12:10:24.118Z TRUE            PHONE      2023-06-03T12:10:24Z     <NA>   <NA>           
## # ℹ 2,278 more rows
…
  mutate(
    day_month = strftime(timestamp_local, "%B %e"),
    # With %e, there's a leading space for single-digit numbers, so we remove
    # any double spaces and replace them with single spaces 
    # (e.g., "June  3" becomes "June 3")
    day_month = str_replace(day_month, "  ", " "),
    day_month = fct_inorder(day_month)
  )
all_locations
## Simple feature collection with 2288 features and 19 fields
## Geometry type: POINT
## Dimension:     XY
## Bounding box:  xmin: -111.6 ymin: 29.4 xmax: -84.31 ymax: 35.53
## Geodetic CRS:  WGS 84
## # A tibble: 2,288 × 20
##    accuracy velocity heading altitude verticalAccuracy deviceTag platformType serverTimestamp          batteryCharging formFactor timestamp           source deviceTimestamp       geometry tz               timestamp_local      year month   day day_month
##  *    <int>    <int>   <int>    <int>            <int>     <int> <chr>        <chr>                    <lgl>           <chr>      <dttm>              <chr>  <chr>              <POINT [°]> <chr>            <dttm>              <dbl> <dbl> <int> <fct>    
##  1        4       30     205      271                3         0 IOS          2023-06-03T12:00:21.140Z TRUE            PHONE      2023-06-03 12:00:21 <NA>   <NA>            (-84.31 33.85) America/New_York 2023-06-03 08:00:21  2023     6     3 June 3   
##  2       25       32     238      272                3         0 IOS          2023-06-03T12:01:41.112Z TRUE            PHONE      2023-06-03 12:01:41 <NA>   <NA>            (-84.33 33.84) America/New_York 2023-06-03 08:01:41  2023     6     3 June 3   
##  3        4       29     228      270                3         0 IOS          2023-06-03T12:02:36.183Z TRUE            PHONE      2023-06-03 12:02:36 <NA>   <NA>            (-84.34 33.83) America/New_York 2023-06-03 08:02:36  2023     6     3 June 3   
##  4        4       30     203      259                3         0 IOS          2023-06-03T12:03:46.098Z TRUE            PHONE      2023-06-03 12:03:46 <NA>   <NA>            (-84.36 33.82) America/New_York 2023-06-03 08:03:46  2023     6     3 June 3   
##  5        4       30     233      277                3         0 IOS          2023-06-03T12:04:51.107Z TRUE            PHONE      2023-06-03 12:04:51 <NA>   <NA>            (-84.38 33.81) America/New_York 2023-06-03 08:04:51  2023     6     3 June 3   
##  6        4       27     192      269                3         0 IOS          2023-06-03T12:05:56.167Z TRUE            PHONE      2023-06-03 12:05:55 <NA>   <NA>             (-84.39 33.8) America/New_York 2023-06-03 08:05:55  2023     6     3 June 3   
##  7        4       27     180      282                3         0 IOS          2023-06-03T12:07:03.134Z TRUE            PHONE      2023-06-03 12:07:03 <NA>   <NA>            (-84.39 33.78) America/New_York 2023-06-03 08:07:03  2023     6     3 June 3   
##  8        4       23     125      291                3         0 IOS          2023-06-03T12:08:08.143Z TRUE            PHONE      2023-06-03 12:08:08 <NA>   <NA>            (-84.39 33.77) America/New_York 2023-06-03 08:08:08  2023     6     3 June 3   
##  9        4       27     181      310                3         0 IOS          2023-06-03T12:09:16.194Z TRUE            PHONE      2023-06-03 12:09:16 <NA>   <NA>            (-84.38 33.76) America/New_York 2023-06-03 08:09:16  2023     6     3 June 3   
## 10        4       26     207      295                3         0 IOS          2023-06-03T12:10:24.118Z TRUE            PHONE      2023-06-03 12:10:24 <NA>   <NA>            (-84.39 33.74) America/New_York 2023-06-03 08:10:24  2023     6     3 June 3   
## # ℹ 2,278 more rows
…
    # With %e, there's a leading space for single-digit numbers, so we remove
    # any double spaces and replace them with single spaces 
    # (e.g., "June  3" becomes "June 3")
    day_month = str_replace(day_month, "  ", " "),
    day_month = fct_inorder(day_month)
  ) %>% 
  # Bring in abbreviated time zones
  left_join(tz_abbreviations, by = join_by(tz))
place_visits
## Simple feature collection with 24 features and 16 fields
## Geometry type: POINT
## Dimension:     XY
## Bounding box:  xmin: -111.6 ymin: 29.4 xmax: -86.34 ymax: 35.53
## Geodetic CRS:  WGS 84
## # A tibble: 24 × 17
##    id                          name                            address                                            startTimestamp      endTimestamp        duration    driving_stop       geometry tz              startTimestamp_local endTimestamp_local  direction  year month   day day_month tz_abb
##    <chr>                       <chr>                           <chr>                                              <dttm>              <dttm>              <drtn>      <lgl>           <POINT [°]> <chr>           <dttm>               <dttm>              <chr>     <dbl> <dbl> <int> <fct>     <chr> 
##  1 ChIJQ0NgzsqAjogRISqopW4DZMc Chevron                         1030 W South Blvd, Montgomery, AL 36105, USA       2023-06-03 14:27:23 2023-06-03 14:50:24  23.02 mins TRUE         (-86.34 32.33) America/Chicago 2023-06-03 09:27:23  2023-06-03 09:50:24 There      2023     6     3 June 3    CDT   
##  2 ChIJMU2weFNKmogRNvJ9RoXN_Vk Walmart Supercenter             5245 Rangeline Service Rd, Mobile, AL 36619, USA   2023-06-03 17:12:34 2023-06-03 17:59:38  47.07 mins TRUE         (-88.16 30.59) America/Chicago 2023-06-03 12:12:34  2023-06-03 12:59:38 There      2023     6     3 June 3    CDT   
##  3 ChIJnwDSTcsDnogRLyt_lqVprLY Comfort Suites New Orleans East 7051 Bullard Ave, New Orleans, LA 70128, USA       2023-06-03 19:45:22 2023-06-03 20:52:17  66.90 mins FALSE        (-89.96 30.05) America/Chicago 2023-06-03 14:45:22  2023-06-03 15:52:17 There      2023     6     3 June 3    CDT   
##  4 ChIJgcNDAhKmIIYRRA4mio_7VgE P149 - Chartres St Garage       537 Chartres St, New Orleans, LA 70130, USA        2023-06-03 21:08:30 2023-06-03 22:31:08  82.64 mins FALSE        (-90.06 29.96) America/Chicago 2023-06-03 16:08:30  2023-06-03 17:31:08 There      2023     6     3 June 3    CDT   
##  5 ChIJv30_Xw-mIIYRpt26QbLBh58 Louis Armstrong Park            701 N Rampart St, New Orleans, LA 70116, USA       2023-06-03 22:44:22 2023-06-03 22:59:51  15.48 mins FALSE        (-90.07 29.96) America/Chicago 2023-06-03 17:44:22  2023-06-03 17:59:51 There      2023     6     3 June 3    CDT   
##  6 ChIJgcNDAhKmIIYRRA4mio_7VgE P149 - Chartres St Garage       537 Chartres St, New Orleans, LA 70130, USA        2023-06-03 23:10:10 2023-06-03 23:19:40   9.50 mins FALSE        (-90.06 29.96) America/Chicago 2023-06-03 18:10:10  2023-06-03 18:19:40 There      2023     6     3 June 3    CDT   
##  7 ChIJnwDSTcsDnogRLyt_lqVprLY Comfort Suites New Orleans East 7051 Bullard Ave, New Orleans, LA 70128, USA       2023-06-03 23:37:50 2023-06-04 14:01:02 863.20 mins FALSE        (-89.96 30.05) America/Chicago 2023-06-03 18:37:50  2023-06-04 09:01:02 There      2023     6     3 June 3    CDT   
##  8 ChIJ59n6fW8dnogRWi-5N6olcyU Chalmette Battlefield           1 Battlefield Rd, Chalmette, LA 70043, USA         2023-06-04 14:24:06 2023-06-04 15:54:20  90.25 mins FALSE        (-89.99 29.94) America/Chicago 2023-06-04 09:24:06  2023-06-04 10:54:20 There      2023     6     4 June 4    CDT   
##  9 ChIJTZPVqVh9JIYRx10_jt-c4LE Exxon                           2939 Grand Point Hwy, Breaux Bridge, LA 70517, USA 2023-06-04 17:54:09 2023-06-04 18:31:35  37.45 mins TRUE         (-91.83 30.32) America/Chicago 2023-06-04 12:54:09  2023-06-04 13:31:35 There      2023     6     4 June 4    CDT   
## 10 ChIJFWLuzkT3O4YRBX2lqNQDF4w Exxon                           1410 Gum Cove Rd, Vinton, LA 70668, USA            2023-06-04 20:02:26 2023-06-04 20:26:48  24.37 mins TRUE         (-93.57 30.19) America/Chicago 2023-06-04 15:02:26  2023-06-04 15:26:48 There      2023     6     4 June 4    CDT   
## # ℹ 14 more rows
…
  left_join(
    rename(tz_abbreviations, "tz_end_abb" = "tz_abb"),
    by = join_by(tz_end == tz)
  ) %>% 
  # Create an id column so we can better reference individual activities 
  # Make it a character so it can combine with the place visit id column
  mutate(id = as.character(1:n()))
activity_segments
## Simple feature collection with 23 features and 19 fields
## Active geometry column: geometry_start
## Geometry type: POINT
## Dimension:     XY
## Bounding box:  xmin: -108.7 ymin: 29.4 xmax: -86.34 ymax: 35.53
## Geodetic CRS:  WGS 84
## # A tibble: 23 × 21
##    distance_m activity_type        startTimestamp      endTimestamp        duration    distance_miles hours avg_mph geometry_start   geometry_end tz_start        tz_end          startTimestamp_local endTimestamp_local   year month   day day_month tz_start_abb tz_end_abb id   
##  *      <int> <chr>                <dttm>              <dttm>              <drtn>               <dbl> <dbl>   <dbl>    <POINT [°]>    <POINT [°]> <chr>           <chr>           <dttm>               <dttm>              <dbl> <dbl> <int> <fct>     <chr>        <chr>      <chr>
##  1     272317 IN_PASSENGER_VEHICLE 2023-06-03 14:50:24 2023-06-03 17:12:34 142.17 mins        169.    2.37    71.4  (-86.34 32.33) (-88.16 30.59) America/Chicago America/Chicago 2023-06-03 09:50:24  2023-06-03 12:12:34  2023     6     3 June 3    CDT          CDT        1    
##  2     195400 IN_PASSENGER_VEHICLE 2023-06-03 17:59:38 2023-06-03 19:45:22 105.75 mins        121.    1.76    68.9   (-88.16 30.6) (-89.96 30.05) America/Chicago America/Chicago 2023-06-03 12:59:38  2023-06-03 14:45:22  2023     6     3 June 3    CDT          CDT        2    
##  3      15368 IN_PASSENGER_VEHICLE 2023-06-03 20:52:17 2023-06-03 21:08:30  16.22 mins          9.55  0.270   35.3  (-89.96 30.05) (-90.07 29.96) America/Chicago America/Chicago 2023-06-03 15:52:17  2023-06-03 16:08:30  2023     6     3 June 3    CDT          CDT        3    
##  4       1026 WALKING              2023-06-03 22:31:08 2023-06-03 22:44:22  13.23 mins          0.638 0.221    2.89 (-90.06 29.96) (-90.07 29.96) America/Chicago America/Chicago 2023-06-03 17:31:08  2023-06-03 17:44:22  2023     6     3 June 3    CDT          CDT        4    
##  5       1280 WALKING              2023-06-03 22:59:51 2023-06-03 23:10:10  10.32 mins          0.795 0.172    4.63 (-90.07 29.96) (-90.06 29.96) America/Chicago America/Chicago 2023-06-03 17:59:51  2023-06-03 18:10:10  2023     6     3 June 3    CDT          CDT        5    
##  6      14611 IN_PASSENGER_VEHICLE 2023-06-03 23:19:40 2023-06-03 23:37:50  18.17 mins          9.08  0.303   30.0  (-90.06 29.96) (-89.96 30.05) America/Chicago America/Chicago 2023-06-03 18:19:40  2023-06-03 18:37:50  2023     6     3 June 3    CDT          CDT        6    
##  7      14258 IN_PASSENGER_VEHICLE 2023-06-04 14:01:02 2023-06-04 14:24:06  23.07 mins          8.86  0.384   23.0  (-89.96 30.05) (-89.99 29.94) America/Chicago America/Chicago 2023-06-04 09:01:02  2023-06-04 09:24:06  2023     6     4 June 4    CDT          CDT        7    
##  8     199631 IN_PASSENGER_VEHICLE 2023-06-04 15:54:20 2023-06-04 17:54:09 119.80 mins        124.    2.00    62.1  (-89.99 29.94) (-91.83 30.32) America/Chicago America/Chicago 2023-06-04 10:54:20  2023-06-04 12:54:09  2023     6     4 June 4    CDT          CDT        8    
##  9     169541 IN_PASSENGER_VEHICLE 2023-06-04 18:31:35 2023-06-04 20:02:26  90.83 mins        105.    1.51    69.6  (-91.83 30.32) (-93.57 30.19) America/Chicago America/Chicago 2023-06-04 13:31:35  2023-06-04 15:02:26  2023     6     4 June 4    CDT          CDT        9    
## 10      71377 IN_PASSENGER_VEHICLE 2023-06-04 20:26:48 2023-06-04 21:06:44  39.93 mins         44.4   0.666   66.6  (-93.57 30.19) (-94.21 29.99) America/Chicago America/Chicago 2023-06-04 15:26:48  2023-06-04 16:06:44  2023     6     4 June 4    CDT          CDT        10   
## # ℹ 13 more rows
…
We’ll use bind_rows() to combine the two and then sort. It’s kind of an ugly dataset, with lots of missing data in every other row since each type of entry has slightly different columns in it, but some columns are consistent throughout, like duration and the different timestamps, so it’ll be helpful.

all_stops_activities <- bind_rows(
  list(visit = place_visits, segment = activity_segments),
  .id = "type"
) %>% 
  arrange(startTimestamp)
all_stops_activities
## Simple feature collection with 47 features and 26 fields
## Active geometry column: geometry (with 23 geometries empty)
## Geometry type: POINT
## Dimension:     XY
## Bounding box:  xmin: -111.6 ymin: 29.4 xmax: -86.34 ymax: 35.53
## Geodetic CRS:  WGS 84
## # A tibble: 47 × 29
##    type    id             name  address startTimestamp      endTimestamp        duration driving_stop       geometry tz              startTimestamp_local endTimestamp_local  direction  year month   day day_month tz_abb distance_m activity_type  distance_miles  hours avg_mph geometry_start
##    <chr>   <chr>          <chr> <chr>   <dttm>              <dttm>              <drtn>   <lgl>           <POINT [°]> <chr>           <dttm>               <dttm>              <chr>     <dbl> <dbl> <int> <fct>     <chr>       <int> <chr>                   <dbl>  <dbl>   <dbl>    <POINT [°]>
##  1 visit   ChIJQ0NgzsqAj… Chev… 1030 W… 2023-06-03 14:27:23 2023-06-03 14:50:24  23.02 … TRUE         (-86.34 32.33) America/Chicago 2023-06-03 09:27:23  2023-06-03 09:50:24 There      2023     6     3 June 3    CDT            NA <NA>                   NA     NA       NA             EMPTY
##  2 segment 1              <NA>  <NA>    2023-06-03 14:50:24 2023-06-03 17:12:34 142.17 … NA                    EMPTY <NA>            2023-06-03 09:50:24  2023-06-03 12:12:34 <NA>       2023     6     3 June 3    <NA>       272317 IN_PASSENGER_…        169.     2.37    71.4  (-86.34 32.33)
##  3 visit   ChIJMU2weFNKm… Walm… 5245 R… 2023-06-03 17:12:34 2023-06-03 17:59:38  47.07 … TRUE         (-88.16 30.59) America/Chicago 2023-06-03 12:12:34  2023-06-03 12:59:38 There      2023     6     3 June 3    CDT            NA <NA>                   NA     NA       NA             EMPTY
##  4 segment 2              <NA>  <NA>    2023-06-03 17:59:38 2023-06-03 19:45:22 105.75 … NA                    EMPTY <NA>            2023-06-03 12:59:38  2023-06-03 14:45:22 <NA>       2023     6     3 June 3    <NA>       195400 IN_PASSENGER_…        121.     1.76    68.9   (-88.16 30.6)
##  5 visit   ChIJnwDSTcsDn… Comf… 7051 B… 2023-06-03 19:45:22 2023-06-03 20:52:17  66.90 … FALSE        (-89.96 30.05) America/Chicago 2023-06-03 14:45:22  2023-06-03 15:52:17 There      2023     6     3 June 3    CDT            NA <NA>                   NA     NA       NA             EMPTY
##  6 segment 3              <NA>  <NA>    2023-06-03 20:52:17 2023-06-03 21:08:30  16.22 … NA                    EMPTY <NA>            2023-06-03 15:52:17  2023-06-03 16:08:30 <NA>       2023     6     3 June 3    <NA>        15368 IN_PASSENGER_…          9.55   0.270   35.3  (-89.96 30.05)
##  7 visit   ChIJgcNDAhKmI… P149… 537 Ch… 2023-06-03 21:08:30 2023-06-03 22:31:08  82.64 … FALSE        (-90.06 29.96) America/Chicago 2023-06-03 16:08:30  2023-06-03 17:31:08 There      2023     6     3 June 3    CDT            NA <NA>                   NA     NA       NA             EMPTY
##  8 segment 4              <NA>  <NA>    2023-06-03 22:31:08 2023-06-03 22:44:22  13.23 … NA                    EMPTY <NA>            2023-06-03 17:31:08  2023-06-03 17:44:22 <NA>       2023     6     3 June 3    <NA>         1026 WALKING                 0.638  0.221    2.89 (-90.06 29.96)
##  9 visit   ChIJv30_Xw-mI… Loui… 701 N … 2023-06-03 22:44:22 2023-06-03 22:59:51  15.48 … FALSE        (-90.07 29.96) America/Chicago 2023-06-03 17:44:22  2023-06-03 17:59:51 There      2023     6     3 June 3    CDT            NA <NA>                   NA     NA       NA             EMPTY
## 10 segment 5              <NA>  <NA>    2023-06-03 22:59:51 2023-06-03 23:10:10  10.32 … NA                    EMPTY <NA>            2023-06-03 17:59:51  2023-06-03 18:10:10 <NA>       2023     6     3 June 3    <NA>         1280 WALKING                 0.795  0.172    4.63 (-90.07 29.96)
## # ℹ 37 more rows
## # ℹ 5 more variables: geometry_end <POINT [°]>, tz_start <chr>, tz_end <chr>, tz_start_abb <chr>, tz_end_abb <chr>
…
